%YAML 1.1
%TAG !u! tag:unity3d.com,2011:
--- !u!114 &11400000
MonoBehaviour:
  m_ObjectHideFlags: 0
  m_CorrespondingSourceObject: {fileID: 0}
  m_PrefabInstance: {fileID: 0}
  m_PrefabAsset: {fileID: 0}
  m_GameObject: {fileID: 0}
  m_Enabled: 1
  m_EditorHideFlags: 0
  m_Script: {fileID: 11500000, guid: adf57f69b2e5605408ccdf6925472f20, type: 3}
  m_Name: Question_3
  m_EditorClassIdentifier: 
  question: What is the record for most home runs in a season by an American Leaguer?
  answers:
  - 62
  - 58
  - 60
  - 64
  correctAnswerIndex: 0
